lab08-cpu/transcript
# vsim -c work.cpu_test 
# Start time: 16:42:40 on Nov 13,2025
# Loading sv_std.std
# Loading work.typedefs
# Loading work.cpu_test_sv_unit
# Loading work.cpu_test
# Loading work.cpu_sv_unit
# Loading work.cpu
# Loading work.control_sv_unit
# Loading work.control
# Loading work.alu_sv_unit
# Loading work.alu
# Loading work.register
# Loading work.counter
# Loading work.scale_mux
# Loading work.mem
run -all
# CPU test with FETCH = 0
# Loading CPUtest1.dat (test 1, fetch = 0)
# 45.0 ns fetch=0, test=1, PC=00 - JMP, opcode = 7, acc = 00, alu_out = xx, mem_data = e3
# 125.0 ns fetch=0, test=1, PC=03 - LDA, opcode = 5, acc = 00, alu_out = xx, mem_data = 00
# [END TEST] Test 1 with fetch=0 finished at time 135.0 ns
# Loading CPUtest2.dat (test 2, fetch = 0)
# 175.0 ns fetch=0, test=2, PC=00 - LDA, opcode = 5, acc = 00, alu_out = 00, mem_data = aa
# 255.0 ns fetch=0, test=2, PC=01 - ADD, opcode = 2, acc = 00, alu_out = 00, mem_data = 01
# [END TEST] Test 2 with fetch=0 finished at time 265.0 ns
# Loading CPUtest3.dat (test 3, fetch = 0)
# 305.0 ns fetch=0, test=3, PC=00 - JMP, opcode = 7, acc = 00, alu_out = 00, mem_data = bb
# Next Fibonacci number is 0
# 385.0 ns fetch=0, test=3, PC=01 - HLT, opcode = 0, acc = 00, alu_out = 00, mem_data = e3
# 465.0 ns fetch=0, test=3, PC=03 - LDA, opcode = 5, acc = 00, alu_out = 00, mem_data = 00
# [END TEST] Test 3 with fetch=0 finished at time 475.0 ns
# CPU test with FETCH = 1
# Loading CPUtest1.dat (test 1, fetch = 1)
# 515.0 ns fetch=1, test=1, PC=00 - JMP, opcode = 7, acc = 00, alu_out = 00, mem_data = fe
# 595.0 ns fetch=1, test=1, PC=1e - JMP, opcode = 7, acc = 00, alu_out = 00, mem_data = e3
# 675.0 ns fetch=1, test=1, PC=03 - LDA, opcode = 5, acc = 00, alu_out = 00, mem_data = ba
# 755.0 ns fetch=1, test=1, PC=04 - SKZ, opcode = 1, acc = 00, alu_out = 00, mem_data = 20
# 835.0 ns fetch=1, test=1, PC=06 - LDA, opcode = 5, acc = 00, alu_out = 00, mem_data = bb
# 915.0 ns fetch=1, test=1, PC=07 - SKZ, opcode = 1, acc = 00, alu_out = 00, mem_data = 20
# 995.0 ns fetch=1, test=1, PC=09 - HLT, opcode = 0, acc = 00, alu_out = 00, mem_data = 00
# [END TEST] Test 1 with fetch=1 finished at time 1005.0 ns
# Loading CPUtest2.dat (test 2, fetch = 1)
# 1045.0 ns fetch=1, test=2, PC=00 - LDA, opcode = 5, acc = 00, alu_out = 00, mem_data = bb
# 1125.0 ns fetch=1, test=2, PC=01 - AND, opcode = 3, acc = 00, alu_out = 00, mem_data = 7c
# 1205.0 ns fetch=1, test=2, PC=02 - XOR, opcode = 4, acc = 00, alu_out = 00, mem_data = 9b
# 1285.0 ns fetch=1, test=2, PC=03 - SKZ, opcode = 1, acc = 00, alu_out = 00, mem_data = 20
# 1365.0 ns fetch=1, test=2, PC=05 - ADD, opcode = 2, acc = 00, alu_out = 00, mem_data = 5a
# 1445.0 ns fetch=1, test=2, PC=06 - SKZ, opcode = 1, acc = 00, alu_out = 00, mem_data = 20
# 1525.0 ns fetch=1, test=2, PC=08 - HLT, opcode = 0, acc = 00, alu_out = 00, mem_data = 00
# [END TEST] Test 2 with fetch=1 finished at time 1535.0 ns
# Loading CPUtest3.dat (test 3, fetch = 1)
# 1575.0 ns fetch=1, test=3, PC=00 - JMP, opcode = 7, acc = 00, alu_out = 00, mem_data = e3
# Next Fibonacci number is 0
# 1655.0 ns fetch=1, test=3, PC=03 - LDA, opcode = 5, acc = 00, alu_out = 00, mem_data = bb
# 1735.0 ns fetch=1, test=3, PC=04 - STO, opcode = 6, acc = bb, alu_out = bb, mem_data = dc
# 1815.0 ns fetch=1, test=3, PC=05 - LDA, opcode = 5, acc = bb, alu_out = bb, mem_data = bb
# 1895.0 ns fetch=1, test=3, PC=06 - STO, opcode = 6, acc = bb, alu_out = bb, mem_data = db
# 1975.0 ns fetch=1, test=3, PC=07 - LDA, opcode = 5, acc = bb, alu_out = bb, mem_data = bb
# 2055.0 ns fetch=1, test=3, PC=08 - STO, opcode = 6, acc = bb, alu_out = bb, mem_data = da
# 2135.0 ns fetch=1, test=3, PC=09 - LDA, opcode = 5, acc = bb, alu_out = bb, mem_data = bb
# 2215.0 ns fetch=1, test=3, PC=0a - SKZ, opcode = 1, acc = bb, alu_out = bb, mem_data = 20
# 2295.0 ns fetch=1, test=3, PC=0b - JMP, opcode = 7, acc = bb, alu_out = bb, mem_data = e3
# Next Fibonacci number is 0
# 2375.0 ns fetch=1, test=3, PC=03 - LDA, opcode = 5, acc = bb, alu_out = bb, mem_data = bb
# 2455.0 ns fetch=1, test=3, PC=04 - STO, opcode = 6, acc = bb, alu_out = bb, mem_data = dc
# 2535.0 ns fetch=1, test=3, PC=05 - LDA, opcode = 5, acc = bb, alu_out = bb, mem_data = bb
# 2615.0 ns fetch=1, test=3, PC=06 - STO, opcode = 6, acc = bb, alu_out = bb, mem_data = db
# 2695.0 ns fetch=1, test=3, PC=07 - LDA, opcode = 5, acc = bb, alu_out = bb, mem_data = bb
# 2775.0 ns fetch=1, test=3, PC=08 - STO, opcode = 6, acc = bb, alu_out = bb, mem_data = da
# 2855.0 ns fetch=1, test=3, PC=09 - LDA, opcode = 5, acc = bb, alu_out = bb, mem_data = bb
# 2935.0 ns fetch=1, test=3, PC=0a - SKZ, opcode = 1, acc = bb, alu_out = bb, mem_data = 20
# 3015.0 ns fetch=1, test=3, PC=0b - JMP, opcode = 7, acc = bb, alu_out = bb, mem_data = e3
# Next Fibonacci number is 0
# 3095.0 ns fetch=1, test=3, PC=03 - LDA, opcode = 5, acc = bb, alu_out = bb, mem_data = bb
# 3175.0 ns fetch=1, test=3, PC=04 - STO, opcode = 6, acc = bb, alu_out = bb, mem_data = dc
# 3255.0 ns fetch=1, test=3, PC=05 - LDA, opcode = 5, acc = bb, alu_out = bb, mem_data = bb
# 3335.0 ns fetch=1, test=3, PC=06 - STO, opcode = 6, acc = bb, alu_out = bb, mem_data = db
# 3415.0 ns fetch=1, test=3, PC=07 - LDA, opcode = 5, acc = bb, alu_out = bb, mem_data = bb
# 3495.0 ns fetch=1, test=3, PC=08 - STO, opcode = 6, acc = bb, alu_out = bb, mem_data = da
# 3575.0 ns fetch=1, test=3, PC=09 - LDA, opcode = 5, acc = bb, alu_out = bb, mem_data = bb
# 3655.0 ns fetch=1, test=3, PC=0a - SKZ, opcode = 1, acc = bb, alu_out = bb, mem_data = 20
# 3735.0 ns fetch=1, test=3, PC=0b - JMP, opcode = 7, acc = bb, alu_out = bb, mem_data = e3
# Next Fibonacci number is 0
# 3815.0 ns fetch=1, test=3, PC=03 - LDA, opcode = 5, acc = bb, alu_out = bb, mem_data = bb
# 3895.0 ns fetch=1, test=3, PC=04 - STO, opcode = 6, acc = bb, alu_out = bb, mem_data = dc
# 3975.0 ns fetch=1, test=3, PC=05 - LDA, opcode = 5, acc = bb, alu_out = bb, mem_data = bb
# 4055.0 ns fetch=1, test=3, PC=06 - STO, opcode = 6, acc = bb, alu_out = bb, mem_data = db
# 4135.0 ns fetch=1, test=3, PC=07 - LDA, opcode = 5, acc = bb, alu_out = bb, mem_data = bb
# 4215.0 ns fetch=1, test=3, PC=08 - STO, opcode = 6, acc = bb, alu_out = bb, mem_data = da
# 4295.0 ns fetch=1, test=3, PC=09 - LDA, opcode = 5, acc = bb, alu_out = bb, mem_data = bb
# 4375.0 ns fetch=1, test=3, PC=0a - SKZ, opcode = 1, acc = bb, alu_out = bb, mem_data = 20
# 4455.0 ns fetch=1, test=3, PC=0b - JMP, opcode = 7, acc = bb, alu_out = bb, mem_data = e3
# Next Fibonacci number is 0
# 4535.0 ns fetch=1, test=3, PC=03 - LDA, opcode = 5, acc = bb, alu_out = bb, mem_data = bb
# 4615.0 ns fetch=1, test=3, PC=04 - STO, opcode = 6, acc = bb, alu_out = bb, mem_data = dc
# 4695.0 ns fetch=1, test=3, PC=05 - LDA, opcode = 5, acc = bb, alu_out = bb, mem_data = bb
# 4775.0 ns fetch=1, test=3, PC=06 - STO, opcode = 6, acc = bb, alu_out = bb, mem_data = db
# 4855.0 ns fetch=1, test=3, PC=07 - LDA, opcode = 5, acc = bb, alu_out = bb, mem_data = bb
# 4935.0 ns fetch=1, test=3, PC=08 - STO, opcode = 6, acc = bb, alu_out = bb, mem_data = da
# 5015.0 ns fetch=1, test=3, PC=09 - LDA, opcode = 5, acc = bb, alu_out = bb, mem_data = bb
# 5095.0 ns fetch=1, test=3, PC=0a - SKZ, opcode = 1, acc = bb, alu_out = bb, mem_data = 20
# 5175.0 ns fetch=1, test=3, PC=0b - JMP, opcode = 7, acc = bb, alu_out = bb, mem_data = e3
# Next Fibonacci number is 0
# 5255.0 ns fetch=1, test=3, PC=03 - LDA, opcode = 5, acc = bb, alu_out = bb, mem_data = bb
# 5335.0 ns fetch=1, test=3, PC=04 - STO, opcode = 6, acc = bb, alu_out = bb, mem_data = dc
# 5415.0 ns fetch=1, test=3, PC=05 - LDA, opcode = 5, acc = bb, alu_out = bb, mem_data = bb
# 5495.0 ns fetch=1, test=3, PC=06 - STO, opcode = 6, acc = bb, alu_out = bb, mem_data = db
# 5575.0 ns fetch=1, test=3, PC=07 - LDA, opcode = 5, acc = bb, alu_out = bb, mem_data = bb
# 5655.0 ns fetch=1, test=3, PC=08 - STO, opcode = 6, acc = bb, alu_out = bb, mem_data = da
# 5735.0 ns fetch=1, test=3, PC=09 - LDA, opcode = 5, acc = bb, alu_out = bb, mem_data = bb
# 5815.0 ns fetch=1, test=3, PC=0a - SKZ, opcode = 1, acc = bb, alu_out = bb, mem_data = 20
# 5895.0 ns fetch=1, test=3, PC=0b - JMP, opcode = 7, acc = bb, alu_out = bb, mem_data = e3
# Next Fibonacci number is 0
# 5975.0 ns fetch=1, test=3, PC=03 - LDA, opcode = 5, acc = bb, alu_out = bb, mem_data = bb
# 6055.0 ns fetch=1, test=3, PC=04 - STO, opcode = 6, acc = bb, alu_out = bb, mem_data = dc
# 6135.0 ns fetch=1, test=3, PC=05 - LDA, opcode = 5, acc = bb, alu_out = bb, mem_data = bb
# 6215.0 ns fetch=1, test=3, PC=06 - STO, opcode = 6, acc = bb, alu_out = bb, mem_data = db
# 6295.0 ns fetch=1, test=3, PC=07 - LDA, opcode = 5, acc = bb, alu_out = bb, mem_data = bb
# 6375.0 ns fetch=1, test=3, PC=08 - STO, opcode = 6, acc = bb, alu_out = bb, mem_data = da
# 6455.0 ns fetch=1, test=3, PC=09 - LDA, opcode = 5, acc = bb, alu_out = bb, mem_data = bb
# 6535.0 ns fetch=1, test=3, PC=0a - SKZ, opcode = 1, acc = bb, alu_out = bb, mem_data = 20
# 6615.0 ns fetch=1, test=3, PC=0b - JMP, opcode = 7, acc = bb, alu_out = bb, mem_data = e3
# Next Fibonacci number is 0
# 6695.0 ns fetch=1, test=3, PC=03 - LDA, opcode = 5, acc = bb, alu_out = bb, mem_data = bb
# 6775.0 ns fetch=1, test=3, PC=04 - STO, opcode = 6, acc = bb, alu_out = bb, mem_data = dc
# 6855.0 ns fetch=1, test=3, PC=05 - LDA, opcode = 5, acc = bb, alu_out = bb, mem_data = bb
# 6935.0 ns fetch=1, test=3, PC=06 - STO, opcode = 6, acc = bb, alu_out = bb, mem_data = db
# 7015.0 ns fetch=1, test=3, PC=07 - LDA, opcode = 5, acc = bb, alu_out = bb, mem_data = bb
# 7095.0 ns fetch=1, test=3, PC=08 - STO, opcode = 6, acc = bb, alu_out = bb, mem_data = da
# 7175.0 ns fetch=1, test=3, PC=09 - LDA, opcode = 5, acc = bb, alu_out = bb, mem_data = bb
# 7255.0 ns fetch=1, test=3, PC=0a - SKZ, opcode = 1, acc = bb, alu_out = bb, mem_data = 20
# 7335.0 ns fetch=1, test=3, PC=0b - JMP, opcode = 7, acc = bb, alu_out = bb, mem_data = e3
# Next Fibonacci number is 0
# 7415.0 ns fetch=1, test=3, PC=03 - LDA, opcode = 5, acc = bb, alu_out = bb, mem_data = bb
# 7495.0 ns fetch=1, test=3, PC=04 - STO, opcode = 6, acc = bb, alu_out = bb, mem_data = dc
# 7575.0 ns fetch=1, test=3, PC=05 - LDA, opcode = 5, acc = bb, alu_out = bb, mem_data = bb
# 7655.0 ns fetch=1, test=3, PC=06 - STO, opcode = 6, acc = bb, alu_out = bb, mem_data = db
# 7735.0 ns fetch=1, test=3, PC=07 - LDA, opcode = 5, acc = bb, alu_out = bb, mem_data = bb
# 7815.0 ns fetch=1, test=3, PC=08 - STO, opcode = 6, acc = bb, alu_out = bb, mem_data = da
# 7895.0 ns fetch=1, test=3, PC=09 - LDA, opcode = 5, acc = bb, alu_out = bb, mem_data = bb
# 7975.0 ns fetch=1, test=3, PC=0a - SKZ, opcode = 1, acc = bb, alu_out = bb, mem_data = 20
# 8055.0 ns fetch=1, test=3, PC=0b - JMP, opcode = 7, acc = bb, alu_out = bb, mem_data = e3
# Next Fibonacci number is 0
# 8135.0 ns fetch=1, test=3, PC=03 - LDA, opcode = 5, acc = bb, alu_out = bb, mem_data = bb
# 8215.0 ns fetch=1, test=3, PC=04 - STO, opcode = 6, acc = bb, alu_out = bb, mem_data = dc
# 8295.0 ns fetch=1, test=3, PC=05 - LDA, opcode = 5, acc = bb, alu_out = bb, mem_data = bb
# 8375.0 ns fetch=1, test=3, PC=06 - STO, opcode = 6, acc = bb, alu_out = bb, mem_data = db
# 8455.0 ns fetch=1, test=3, PC=07 - LDA, opcode = 5, acc = bb, alu_out = bb, mem_data = bb
# 8535.0 ns fetch=1, test=3, PC=08 - STO, opcode = 6, acc = bb, alu_out = bb, mem_data = da
# 8615.0 ns fetch=1, test=3, PC=09 - LDA, opcode = 5, acc = bb, alu_out = bb, mem_data = bb
# 8695.0 ns fetch=1, test=3, PC=0a - SKZ, opcode = 1, acc = bb, alu_out = bb, mem_data = 20
# 8775.0 ns fetch=1, test=3, PC=0b - JMP, opcode = 7, acc = bb, alu_out = bb, mem_data = e3
# Next Fibonacci number is 0
# 8855.0 ns fetch=1, test=3, PC=03 - LDA, opcode = 5, acc = bb, alu_out = bb, mem_data = bb
# 8935.0 ns fetch=1, test=3, PC=04 - STO, opcode = 6, acc = bb, alu_out = bb, mem_data = dc
# 9015.0 ns fetch=1, test=3, PC=05 - LDA, opcode = 5, acc = bb, alu_out = bb, mem_data = bb
# 9095.0 ns fetch=1, test=3, PC=06 - STO, opcode = 6, acc = bb, alu_out = bb, mem_data = db
# 9175.0 ns fetch=1, test=3, PC=07 - LDA, opcode = 5, acc = bb, alu_out = bb, mem_data = bb
# 9255.0 ns fetch=1, test=3, PC=08 - STO, opcode = 6, acc = bb, alu_out = bb, mem_data = da
# 9335.0 ns fetch=1, test=3, PC=09 - LDA, opcode = 5, acc = bb, alu_out = bb, mem_data = bb
# 9415.0 ns fetch=1, test=3, PC=0a - SKZ, opcode = 1, acc = bb, alu_out = bb, mem_data = 20
# 9495.0 ns fetch=1, test=3, PC=0b - JMP, opcode = 7, acc = bb, alu_out = bb, mem_data = e3
# Next Fibonacci number is 0
# 9575.0 ns fetch=1, test=3, PC=03 - LDA, opcode = 5, acc = bb, alu_out = bb, mem_data = bb
# 9655.0 ns fetch=1, test=3, PC=04 - STO, opcode = 6, acc = bb, alu_out = bb, mem_data = dc
# 9735.0 ns fetch=1, test=3, PC=05 - LDA, opcode = 5, acc = bb, alu_out = bb, mem_data = bb
# 9815.0 ns fetch=1, test=3, PC=06 - STO, opcode = 6, acc = bb, alu_out = bb, mem_data = db
# 9895.0 ns fetch=1, test=3, PC=07 - LDA, opcode = 5, acc = bb, alu_out = bb, mem_data = bb
# 9975.0 ns fetch=1, test=3, PC=08 - STO, opcode = 6, acc = bb, alu_out = bb, mem_data = da
# 10055.0 ns fetch=1, test=3, PC=09 - LDA, opcode = 5, acc = bb, alu_out = bb, mem_data = bb
# 10135.0 ns fetch=1, test=3, PC=0a - SKZ, opcode = 1, acc = bb, alu_out = bb, mem_data = 20
# 10215.0 ns fetch=1, test=3, PC=0b - JMP, opcode = 7, acc = bb, alu_out = bb, mem_data = e3
# Next Fibonacci number is 0
# 10295.0 ns fetch=1, test=3, PC=03 - LDA, opcode = 5, acc = bb, alu_out = bb, mem_data = bb
# 10375.0 ns fetch=1, test=3, PC=04 - STO, opcode = 6, acc = bb, alu_out = bb, mem_data = dc
# 10455.0 ns fetch=1, test=3, PC=05 - LDA, opcode = 5, acc = bb, alu_out = bb, mem_data = bb
# 10535.0 ns fetch=1, test=3, PC=06 - STO, opcode = 6, acc = bb, alu_out = bb, mem_data = db
# 10615.0 ns fetch=1, test=3, PC=07 - LDA, opcode = 5, acc = bb, alu_out = bb, mem_data = bb
# 10695.0 ns fetch=1, test=3, PC=08 - STO, opcode = 6, acc = bb, alu_out = bb, mem_data = da
# 10775.0 ns fetch=1, test=3, PC=09 - LDA, opcode = 5, acc = bb, alu_out = bb, mem_data = bb
# 10855.0 ns fetch=1, test=3, PC=0a - SKZ, opcode = 1, acc = bb, alu_out = bb, mem_data = 20
# 10935.0 ns fetch=1, test=3, PC=0b - JMP, opcode = 7, acc = bb, alu_out = bb, mem_data = e3
# Next Fibonacci number is 0
# 11015.0 ns fetch=1, test=3, PC=03 - LDA, opcode = 5, acc = bb, alu_out = bb, mem_data = bb
# 11095.0 ns fetch=1, test=3, PC=04 - STO, opcode = 6, acc = bb, alu_out = bb, mem_data = dc
# 11175.0 ns fetch=1, test=3, PC=05 - LDA, opcode = 5, acc = bb, alu_out = bb, mem_data = bb
# 11255.0 ns fetch=1, test=3, PC=06 - STO, opcode = 6, acc = bb, alu_out = bb, mem_data = db
# 11335.0 ns fetch=1, test=3, PC=07 - LDA, opcode = 5, acc = bb, alu_out = bb, mem_data = bb
# 11415.0 ns fetch=1, test=3, PC=08 - STO, opcode = 6, acc = bb, alu_out = bb, mem_data = da
# 11495.0 ns fetch=1, test=3, PC=09 - LDA, opcode = 5, acc = bb, alu_out = bb, mem_data = bb
# 11575.0 ns fetch=1, test=3, PC=0a - SKZ, opcode = 1, acc = bb, alu_out = bb, mem_data = 20
# 11655.0 ns fetch=1, test=3, PC=0b - JMP, opcode = 7, acc = bb, alu_out = bb, mem_data = e3
# Next Fibonacci number is 0
# 11735.0 ns fetch=1, test=3, PC=03 - LDA, opcode = 5, acc = bb, alu_out = bb, mem_data = bb
# 11815.0 ns fetch=1, test=3, PC=04 - STO, opcode = 6, acc = bb, alu_out = bb, mem_data = dc
# 11895.0 ns fetch=1, test=3, PC=05 - LDA, opcode = 5, acc = bb, alu_out = bb, mem_data = bb
# 11975.0 ns fetch=1, test=3, PC=06 - STO, opcode = 6, acc = bb, alu_out = bb, mem_data = db
# 12055.0 ns fetch=1, test=3, PC=07 - LDA, opcode = 5, acc = bb, alu_out = bb, mem_data = bb
# 12135.0 ns fetch=1, test=3, PC=08 - STO, opcode = 6, acc = bb, alu_out = bb, mem_data = da
# 12215.0 ns fetch=1, test=3, PC=09 - LDA, opcode = 5, acc = bb, alu_out = bb, mem_data = bb
# 12295.0 ns fetch=1, test=3, PC=0a - SKZ, opcode = 1, acc = bb, alu_out = bb, mem_data = 20
# 12375.0 ns fetch=1, test=3, PC=0b - JMP, opcode = 7, acc = bb, alu_out = bb, mem_data = e3
# Next Fibonacci number is 0
# 12455.0 ns fetch=1, test=3, PC=03 - LDA, opcode = 5, acc = bb, alu_out = bb, mem_data = bb
# 12535.0 ns fetch=1, test=3, PC=04 - STO, opcode = 6, acc = bb, alu_out = bb, mem_data = dc
# 12615.0 ns fetch=1, test=3, PC=05 - LDA, opcode = 5, acc = bb, alu_out = bb, mem_data = bb
# 12695.0 ns fetch=1, test=3, PC=06 - STO, opcode = 6, acc = bb, alu_out = bb, mem_data = db
# 12775.0 ns fetch=1, test=3, PC=07 - LDA, opcode = 5, acc = bb, alu_out = bb, mem_data = bb
# 12855.0 ns fetch=1, test=3, PC=08 - STO, opcode = 6, acc = bb, alu_out = bb, mem_data = da
# 12935.0 ns fetch=1, test=3, PC=09 - LDA, opcode = 5, acc = bb, alu_out = bb, mem_data = bb
# [END TEST] Test 3 with fetch=1 time out at time 12985.0 ns
# CPU TEST COMPLETED
# ** Note: $finish    : tb/cpu_test.sv(91)
#    Time: 12985 ns  Iteration: 1  Instance: /cpu_test
# End time: 16:42:42 on Nov 13,2025, Elapsed time: 0:00:02
# Errors: 0, Warnings: 0
